[
  {
    "quoteID" : 2,
    "adviserName": "NRG Bespada",
    "created": 1626864813963,
    "expirationDate": 1628114399000,
    "investment": 2214.9591000000005,
    "isAccepted": true,
    "isAdvised": true,
    "isCancelled": false,
    "isExpired": true,
    "isSeen": true,
    "isSent": true,
    "efficiency": 7.963907489142619,
    "paybackTime": 4.138871461692294,
    "reference": "SP19104",
    "sentOn": 1626867749048,
    "solution": "wallInsulation",
    "subsidy": 0,
    "items": [
      {
        "amount": 89,
        "retailPrice": 3.68,
        "product": {
          "title": "Spouwmuurisolatie met 6cm HR++ isolatieparels",
          "description": "Bij het ontwerp van dit HR++ parelsysteem is vooral gelet op de prijs kwaliteit verhouding. Het systeem kenmerkt zich door een gunstige prijs met toch een goede isolatiewaarde.",
          "solution": "wallInsulation",
          "category": "wallInsulationMaterial",
          "priceUnit": "m2",
          "tax": 0.21,
          "brand": null,
          "productWarranty": 5
        }
      },
      {
        "amount": 89,
        "retailPrice": 14.72,
        "product": {
          "title": "Aanbrengen spouwmuurisolatie met 6cm HR++ isolatieparels",
          "description": null,
          "solution": "wallInsulation",
          "category": "labor",
          "priceUnit": "m2",
          "tax": 0.09
        }
      },
      {
        "amount": 89,
        "retailPrice": 1.6,
        "product": {
          "title": "Herstel van de snijvoeg",
          "description": "Herstel van de snijvoeg",
          "solution": "wallInsulation",
          "category": "service",
          "priceUnit": "m2",
          "tax": 0.21
        }
      },
      {
        "amount": 89,
        "retailPrice": 0.23,
        "product": {
          "title": "Toeslag Insula certificering",
          "description": "Toeslag Insula certificering",
          "solution": "wallInsulation",
          "category": "other",
          "priceUnit": "m2",
          "tax": 0.21
        }
      },
      {
        "amount": 4,
        "retailPrice": 40,
        "product": {
          "title": "Plaatsen van kunststof ventilatierooster",
          "description": "Omdat de spouwmuur wordt gevuld met isolatiemateriaal dienen er nieuwe ventilatieschachten te worden aangebracht. De kunststof ventilatiekokers worden met een zwart rooster afgewerkt en de oude ventilatie openingen (openstaande voegen) worden netjes dicht gevoegd. ",
          "solution": "wallInsulation",
          "category": "service",
          "priceUnit": "unit",
          "tax": 0.21
        }
      }
    ],
    "energyDelta": {
      "electricityConsumption": 0,
      "electricityProduction": 0,
      "gasConsumption": 364.54835732762723,
      "gasFactor": 0.146964249266672,
      "emission": 648.8960760431764,
      "money": 510.3677002586781
    }
  },
  {
    "quoteID" : 3,
    "adviserName": "NRG Bespada",
    "created": 1626865577316,
    "expirationDate": 1628114399000,
    "investment": 2390.0162,
    "isAccepted": false,
    "isAdvised": true,
    "isCancelled": false,
    "isExpired": true,
    "isSeen": true,
    "isSent": true,
    "efficiency": 4.98338160683387,
    "paybackTime": 8.064472070818422,
    "reference": "CV19106",
    "sentOn": 1626865587954,
    "solution": "centralHeatingBoiler",
    "subsidy": 0,
    "items": [
      {
        "amount": 1,
        "retailPrice": 1645.98,
        "product": {
          "title": "Remeha Tzerra Ace CW5 CV ketel met A-label pomp",
          "description": "De Tzerra Ace is de nieuwste variant van het opvallende Tzerra concept dat al in 2012 werd geïntroduceerd. Inmiddels heeft dit concept z’n strepen in de markt al dubbel en dwars verdiend. Maar iets dat goed is, kan altijd nog beter worden. De Tzerra Ace heeft een nieuwe besturing gekregen, welke gebruik maakt van Remeha's nieuwste elektronica platform eSmart. Hiermee is de ketel nog beter voorbereid op de digitale wereld.",
          "solution": "centralHeatingBoiler",
          "category": "centralHeatingBoiler",
          "priceUnit": "unit",
          "tax": 0.21,
          "brand": "Remeha",

          "productWarranty": 2
        }
      },
      {
        "amount": 1,
        "retailPrice": 0,
        "product": {
          "title": "Standaard arbeid CV ketel installatie",
          "description": null,
          "solution": "centralHeatingBoiler",
          "category": "labor",
          "priceUnit": "unit",
          "tax": 0.21
        }
      },
      {
        "amount": 1,
        "retailPrice": 135.45,
        "product": {
          "title": "Remeha E-twist Rinie Frijns",
          "description": "Meerprijs voor de Remeha E-twist t.o.v. eerder aangeboden Remeha iSense thermostaat. ",
          "solution": "centralHeatingBoiler",
          "category": "thermostat",
          "priceUnit": "unit",
          "tax": 0.21,
          "brand": "Remeha",
          "advantages": ["Op afstand bedienbaar"],
          "productWarranty": 0
        }
      },
      {
        "amount": 1,
        "retailPrice": 193.79,
        "product": {
          "title": "Vernieuwen rookgasafvoer inclusief montage",
          "description": "Vernieuwen rookgasafvoer inclusief montage",
          "solution": "hybridHeatPump",
          "category": "service",
          "priceUnit": "unit",
          "tax": 0.21
        }
      }
    ],
    "energyDelta": {
      "electricityConsumption": 0,
      "electricityProduction": 0,
      "gasConsumption": 190.2332329949239,
      "gasFactor": 0.0766907426976688,
      "emission": 338.61515473096455,
      "money": 266.3265261928934
    }
  },
  {
    "quoteID" : 4,
    "adviserName": "NRG Bespada",
    "created": 1632904850257,
    "expirationDate": 1634162399000,
    "investment": 1620.9053999999999,
    "isAccepted": true,
    "isAdvised": true,
    "isCancelled": false,
    "isExpired": true,
    "isSeen": true,
    "isSent": true,
    "efficiency": 6.8052719817170315,
    "paybackTime": 5.420511958881487,
    "reference": "BO19107",
    "sentOn": 1632904874549,
    "solution": "crawlspaceInsulation",
    "subsidy": 0,
    "items": [
      {
        "amount": 38,
        "retailPrice": 6.24,
        "product": {
          "title": "Bodemisolatie met 20-25cm isolatieparels",
          "description": "Bodemisolatie met isolatieparels is een innovatieve oplossing waarbij grote grijze parels van geëxpandeerd polystyreen (EPS), toegepast worden op de bodem van vochtige en/of moeilijk bereikbare lage kruipruimtes. Bodemisolatie met isolatieparels verduurzaamt je woning en brengt de luchtvochtigheid in huis in balans. Hierdoor verbetert het woonklimaat en dus ook het leefcomfort in huis.",
          "solution": "crawlspaceInsulation",
          "category": "floorInsulationMaterial",
          "priceUnit": "m2",
          "tax": 0.21,
          "brand": null,
          "advantages": [
            "Verlaagt de luchtvochtigheid in de kruipruimte ",
            "Isoleert op een effectieve manier de begane grond van uw woning"
          ],
          "productWarranty": null
        }
      },
      {
        "amount": 38,
        "retailPrice": 24.94,
        "product": {
          "title": "Aanbrengen bodemisolatie met 20-25cm isolatieparels",
          "description": null,
          "solution": "crawlspaceInsulation",
          "category": "labor",
          "priceUnit": "m2",
          "tax": 0.09
        }
      },
      {
        "amount": 38,
        "retailPrice": 0.23,
        "product": {
          "title": "Toeslag SKG IKOB certificering",
          "description": "Toeslag SKG IKOB certificering",
          "solution": "floorInsulation",
          "category": "other",
          "priceUnit": "m2",
          "tax": 0.21
        }
      },
      {
        "amount": 2,
        "retailPrice": 120,
        "product": {
          "title": "Toegang tot kruipruimte creëren ",
          "description": "Toegang tot de kruipruimte maken vanuit de kelder of eventueel via boorgaten de isolatie in de kruipruimte aanbrengen.",
          "solution": "floorInsulation",
          "category": "service",
          "priceUnit": "unit",
          "tax": 0.21
        }
      }
    ],
    "energyDelta": {
      "electricityConsumption": 0,
      "electricityProduction": 0,
      "gasConsumption": 199.73513672224118,
      "gasFactor": 0.0805213460176952,
      "emission": 355.5285433655893,
      "money": 279.62919141113764
    }
  },
  {
    "quoteID" : 1,
    "adviserName": "NRG Bespada",
    "created": 1626863764812,
    "expirationDate": 1628114399000,
    "investment": 5347.38,
    "isAccepted": false,
    "isAdvised": true,
    "isCancelled": false,
    "isExpired": true,
    "isSeen": true,
    "isSent": true,
    "efficiency": 8.425882897780856,
    "paybackTime": 3.2181196608978446,
    "reference": "PV19103",
    "sentOn": 1626863959160,
    "solution": "solarPanels",
    "subsidy": 0,
    "items": [
      {
        "amount": 12,
        "retailPrice": 145.2,
        "product": {
          "title": "Trina Solar Vertex Mono 390 All Black 1/3 Cut PERC",
          "description": "De panelen van de Trina Vertex range hebben tri-cut PERC cellen, waardoor ze een hoog vermogen leveren met een relatief klein oppervlak. Trina heeft zorg besteed aan het uiterlijk van deze all black panelen, hierdoor komen ze goed tot hun recht op het vooraanzicht van een woning. Met 15 jaar garantie zijn deze panelen een goede keuze voor de residentiële markt.\n",
          "solution": "solarPanels",
          "category": "pvPanel",
          "priceUnit": "unit",
          "tax": 0.21,
          "brand": "TrinaSolar",
          "productWarranty": 15,
          "pMax": 390
        }
      },
      {
        "amount": 1,
        "retailPrice": 948.09,
        "product": {
          "title": "SolarEdge SE3500H",
          "description": "De SolarEdge 1-fase omvormer met HD-Wave technologie onderscheidt zich van traditionele PV-omvormers. Als winnaar van de prestigieuze 2016 Intersolar Award en van de gerenommeerde 2018 Edison Award, is deze 1-fase omvormer speciaal ontworpen om te werken met SolarEdge power optimizers",
          "solution": "solarPanels",
          "category": "inverter",
          "priceUnit": "unit",
          "tax": 0.21,
          "brand": "SolarEdge",

          "productWarranty": 12
        }
      },
      {
        "amount": 12,
        "retailPrice": 70.07,
        "product": {
          "title": "SolarEdge P505",
          "description": "De power optimizer van SolarEdge is een DC/DC omvormer die door installateurs wordt aangesloten op elk zonnepaneel om er slimme panelen van te maken. De SolarEdge power optimizers verhogen de energie-output van PV-systemen doordat ze voortdurend het Maximum Power Point (MPP) van elk zonnepaneel afzonderlijk volgen. Bovendien bewaken de power optimizers de prestaties van elk paneel en communiceren ze de prestatiegegevens naar het SolarEdge monitoring platform voor verbeterd, kosteneffectief onderhoud op paneelniveau. Elke power optimizer is voorzien van de unieke SafeDC™ functie die ontworpen is om automatisch de DC-spanning van de panelen en de DC-kabels te verlagen naar een veilige spanning wanneer de omvormer of de netspanning uitgeschakeld wordt (tenzij verbonden met een StorEdge omvormer in back-up mode).",
          "solution": "solarPanels",
          "category": "optimizer",
          "priceUnit": "unit",
          "tax": 0.21,
          "brand": "SolarEdge",
          "productWarranty": 25
        }
      },
      {
        "amount": 12,
        "retailPrice": 42.9,
        "product": {
          "title": "Montagemateriaal schuin dak",
          "description": null,
          "solution": "solarPanels",
          "category": "installationMaterial",
          "priceUnit": "unit",
          "tax": 0.21
        }
      },
      {
        "amount": 1,
        "retailPrice": 1251.25,
        "product": {
          "title": "Installatiekosten voor 12 panelen",
          "description": null,
          "solution": "solarPanels",
          "category": "labor",
          "priceUnit": "unit",
          "tax": 0.21
        }
      },
      {
        "amount": 1,
        "retailPrice": 50,
        "product": {
          "title": "BTW teruggave service",
          "description": "De Centrale BTW Teruggave is de vaste partner van De Energiebespaarders in het verzorgen van de BTW teruggave service. De BTW teruggave wordt na de installatie van de zonnepanelen gestart. Meer informatie vindt u via: https://www.btw-zonnepanelen.nl/energiebespaarders",
          "solution": "solarPanels",
          "category": "other",
          "priceUnit": "unit",
          "tax": 0.21
        }
      }
    ],
    "energyDelta": {
      "electricityConsumption": 0,
      "electricityProduction": 3962,
      "gasConsumption": 0,
      "gasFactor": 0,
      "emission": 2266.2639999999997,
      "money": 1624.4199999999998
    }
  }
]
